@startuml
scale 1.9

Main -> BarbiculeController : <<create>>
activate BarbiculeController
BarbiculeController -> BarbiculeManager: <<create>>
deactivate BarbiculeController
activate BarbiculeManager
BarbiculeManager -> BarbiculeRepository: <<create>>
deactivate BarbiculeManager
activate BarbiculeRepository
BarbiculeRepository -> Barbicule: <<create>>
deactivate BarbiculeRepository


group véhicule management system

Main -> BarbiculeController : registerBarbicule
BarbiculeController -> BarbiculeManager : createBarbicule
BarbiculeManager -> BarbiculeRepository : save

Main -> BarbiculeRepository: getBabiculeList()
activate BarbiculeRepository
BarbiculeRepository -> BarbiculeRepository: getBarbiculeList()
BarbiculeRepository -> Main : // X barbicule(s) chez Barbamobile : X barbature(s), X barbamoto(s), ... //
deactivate BarbiculeRepository

Main -> Main : afficher la liste des babicules
end

@enduml