com/barbajavas/barbamobile/model/Barbamoto.class
com/barbajavas/barbamobile/Application.class
com/barbajavas/barbamobile/model/enumdata/Availability.class
com/barbajavas/barbamobile/model/enumdata/Barbafuel.class
com/barbajavas/barbamobile/BarbiculeRepository.class
com/barbajavas/barbamobile/model/Barbature.class
com/barbajavas/barbamobile/model/Barbabus.class
com/barbajavas/barbamobile/model/enumdata/Barbanoise.class
com/barbajavas/barbamobile/model/Barbicule.class
